-------------------------------------------------------------------------------
Test set: fr.mario.cicd.CicdApplicationTests
-------------------------------------------------------------------------------
Tests run: 1, Failures: 0, Errors: 0, Skipped: 0, Time elapsed: 1.036 s - in fr.mario.cicd.CicdApplicationTests
